{
    "prologue": {
        "elementId": "signupIntro",
        "title": "Vendor Application",
        "description": "Let us bring new clients to you. At Lumaven, we empower service providers and vendors by connecting you with new clients, broadening your partner network, providing actionable insights and analytics, and offering a platform to showcase your knowledge and qualifications directly to motivated customers. Apply now to join Lumaven as a service provider or vendor.",
        "ctaText": "Apply Now",
        "icon": {
            "class": "fa fa-file-text-o",
            "color": "#7ba"
        }
    },
    "epilogue": {
        "elementId": "signupConfirmation",
        "title": "Application Complete",
        "description": "Thank you for signing up. We will remain in touch as we review your application and will keep you posted as we develop the Lumaven platform.",
        "icon": {
            "class": "fa fa-check",
            "color": "#7ba"
        }
    },
    "questionsOrder": [
        "fullname",
        "email",
        "isFreelancer",
        "firmName",
        "firmFounded",
        "servicesOffered",
        "hourlyRate",
        "wantsToBlog"
    ],
    "questions": {
        "fullname": {
            "title": "What is your name?",
            "type": "fullname",
            "skipLogic": {},
            "tags": []
        },
        "email": {
            "title": "What is your email address?",
            "type": "email",
            "label": "Email",
            "skipLogic": {},
            "tags": [],
            "uniqueValidation": {
                "url": "/api/vendor/unique/%email%"
            }
        },
        "isFreelancer": {
            "title": "Do you work for a company or as a freelancer?",
            "type": "multiplechoice",
            "choices": [
                {
                    "value": "freelancer",
                    "text": "Freelancer"
                },
                {
                    "value": "company",
                    "text": "Company"
                }
            ],
            "skipLogic": {
                "freelancer": "servicesOffered"
            },
            "tags": []
        },
        "firmName": {
            "title": "What is your company name?",
            "type": "singletext",
            "label": "Company name",
            "skipLogic": {},
            "tags": []
        },
        "firmFounded": {
            "title": "When was your company founded?",
            "type": "number",
            "label": "Year",
            "step": "1",
            "min": 1800,
            "max": 2016,
            "skipLogic": {},
            "tags": []
        },
        "servicesOffered": {
            "title": "Please list all of the services that you offer to your clients",
            "type": "autocompletemultiple",
            "requireMatch": false,
            "source": "/taxonomy.json",
            "skipLogic": {},
            "tags": [],
            "hint": "If you do not find the service you are looking for, you can create a new one by pressing ENTER."
        },
        "hourlyRate": {
            "title": "What is your standard hourly rate (optional)?",
            "optional": true,
            "type": "money",
            "label": "USD",
            "step": "0.01",
            "skipLogic": {},
            "tags": []
        },
        "wantsToBlog": {
            "title": "Creating original content related to your areas of expertise allows you to showcase your knowledge and insights for potential clients. Are you interested in writing a blog or other content for prospective clients focused on your areas of expertise?",
            "type": "yesorno",
            "skipLogic": {},
            "tags": []
        }
    }
}